My Website
…
      My Website

  Home

My Website

Estudiante: Harlen Daniel Quirós Gómez

Carnet: 2022082503

Estudiante: Manuel de Jesús Calero Ríos

Carnet: 2022082503

## # A tibble: 5,390 × 4
## # Groups:   provincia [7]
##    provincia fecha      casos  anio
##    <chr>     <date>     <dbl> <dbl>
##  1 Alajuela  2020-04-23   118  2020
##  2 Alajuela  2020-04-24   110  2020
##  3 Alajuela  2020-04-25   107  2020
##  4 Alajuela  2020-04-26   100  2020
##  5 Alajuela  2020-04-27    96  2020
##  6 Alajuela  2020-04-28    87  2020
##  7 Alajuela  2020-04-29    84  2020
##  8 Alajuela  2020-04-30    84  2020
##  9 Alajuela  2020-05-01    82  2020
## 10 Alajuela  2020-05-02    81  2020
## # ℹ 5,380 more rows
…
Hacer reseña entre las diferencias y que nunca hubo tantos hombres
positivos como mujeres en un solo dia.

## # A tibble: 2,433 × 3
##    FECHA               edad                       value
##    <dttm>              <chr>                      <dbl>
##  1 2020-03-11 00:00:00 Menores fallecidos             0
##  2 2020-03-11 00:00:00 Adultos fallecidos             9
##  3 2020-03-11 00:00:00 Adultos mayores fallecidos     0
##  4 2020-03-12 00:00:00 Menores fallecidos             0
##  5 2020-03-12 00:00:00 Adultos fallecidos             1
##  6 2020-03-12 00:00:00 Adultos mayores fallecidos     0
##  7 2020-03-13 00:00:00 Menores fallecidos             0
##  8 2020-03-13 00:00:00 Adultos fallecidos             2
##  9 2020-03-13 00:00:00 Adultos mayores fallecidos     1
## 10 2020-03-14 00:00:00 Menores fallecidos             0
## # ℹ 2,423 more rows
…
Hacer reseña hubieron muchos días con pocos casos en niños y adultos
mayores, pero con los adultos tuvieron días con muchos más casos, estos
fueron pocos días, por eso la gráfica se ve tan punteada.

## # A tibble: 1,628 × 3
##    FECHA               fallecidos         value
##    <dttm>              <chr>              <dbl>
##  1 2020-03-07 00:00:00 hombres fallecidos     0
##  2 2020-03-07 00:00:00 mujeres fallecidas     0
##  3 2020-03-08 00:00:00 hombres fallecidos     0
##  4 2020-03-08 00:00:00 mujeres fallecidas     0
##  5 2020-03-09 00:00:00 hombres fallecidos     0
##  6 2020-03-09 00:00:00 mujeres fallecidas     0
##  7 2020-03-10 00:00:00 hombres fallecidos     0
##  8 2020-03-10 00:00:00 mujeres fallecidas     0
##  9 2020-03-11 00:00:00 hombres fallecidos     0
## 10 2020-03-11 00:00:00 mujeres fallecidas     0
## # ℹ 1,618 more rows
…
